{
  "kind": "Pod",
  "apiVersion": "v1",
  "metadata": {
    "name": "lenj",
    "creationTimestamp": null,
    "labels": {
      "name": "lenj"
    }
  },
  "spec": {
    "containers": [
      {
        "name": "lenj",
        "image": "yorkred/lenj4",
        "ports": [
          {
            "containerPort": 8088,
            "protocol": "TCP"
          },
          {
            "containerPort": 8448,
            "protocol": "TCP"
          }
        ],
	"env": [
               {
                  "name": "JMEM",
                   "value": "128M"
               },
               {
                  "name": "DOMAINNAME",
                   "value": "lenj-yorkred-test.1d35.starter-us-east-1.openshiftapps.com"
               },
               {
                  "name": "ADDDOMAINS",
                   "value": ""
               },
               {
                  "name": "LEEMAIL",
                   "value": "yorkred@gmail.com"
               },
               {
                  "name": "JAVA_OPTS",
                   "value": "-Xms128M -Xmx128M"
               }
	],
        "resources": {},
        "volumeMounts": [
          {
            "name":"vol1",
            "mountPath":"/var/cache/nginx"
          },
          {
            "name":"vol1",
            "mountPath":"/var/jenkins_home"
          }
        ],
        "terminationMessagePath": "/dev/termination-log",
        "imagePullPolicy": "IfNotPresent",
        "capabilities": {},
        "securityContext": {
          "capabilities": {},
          "privileged": false
        }
      }
    ],
    "volumes": [
      {
        "name":"vol1",
        "emptyDir": {}
      }
    ],
    "restartPolicy": "Always",
    "dnsPolicy": "ClusterFirst",
    "serviceAccount": ""
  },
  "status": {}
}